{ "tarifs":[
    { "packTitle": "Green attitude",
    "price": "à partir de 110 € HT",
    "composition1": "- Hébergement dans un centre éco-responsable",
    "composition2": "- Nom de domaine ",
    "composition3": ""},
    {
    "packTitle": "Je démarre mon activité",
    "price": "à partir de 950 € HT",
    "composition1": "- 1 Site one page",
    "composition2": "- 1 Hébergement  ",
    "composition3": "- 1 Noms de domaine"},
    {
        "packTitle": "Je démarre mon activité +",
        "price": "à partir de 1600 € HT",
        "composition1": "- 1 Site one page",
        "composition2": "- 1 Hébergement et le noms de domaine ",
        "composition3": "- 1 ERP de comptabilité et la formation d'une personne a l'utiliser"},
    {
        "packTitle": "Je boost mon activité",
        "price": "à partir de 710 € HT",
        "composition1": "- Mise en place de l'ERP-CRM Dolibarr",
        "composition2": "- Paramétrage de l'ERP au vue de vos besoins et avec vos données",
        "composition3": "- Formation d'1 personne à l'utilisation de l'ERP (durée 1 journée)"}
]
}
